…
id: Weather station identifier (e.g., “US1NYAB0001”).  
date: The date on which the observation was made.  
prcp: Daily precipitation recorded in tenths of millimeters.  
snow: Daily snowfall in millimeters.  
snwd: Snow depth in millimeters.  
tmax: Maximum temperature recorded in tenths of degrees Celsius.  
tmin: Minimum temperature recorded in tenths of degrees Celsius.

``` r
ny_noaa %>% 
  count(snow) %>%
  arrange(desc(n))
```

    ## # A tibble: 282 × 2
    ##     snow       n
    ##    <int>   <int>
    ##  1     0 2008508
    ##  2    NA  381221
    ##  3    25   31022
    ##  4    13   23095
    ##  5    51   18274
    ##  6    76   10173
    ##  7     8    9962
    ##  8     5    9748
    ##  9    38    9197
    ## 10     3    8790
    ## # ℹ 272 more rows
…
